IS415-GAA - Take-Home Excercise 02
…
# grouping based on the sub-district and date
vaccination_rate <- vaccination_jakarta %>%
  inner_join(jakarta, by=c("Sub_District" = "Sub_District")) %>%
  group_by(Sub_District, Date) %>%
  dplyr::summarise(`vaccination_rate` = ((Target-Not_Yet_Vaccinated)/Target)*100) %>%
  
  #afterwards, pivots the table based on the Dates, using the cumulative case rate as the values
  ungroup() %>% pivot_wider(names_from = Date,
              values_from = vaccination_rate)

Now, lets look at how computed vaccination_rate looks like

vaccination_rate

# A tibble: 261 x 13
   Sub_District  2021-~1 2021-~2 2021-~3 2021-~4 2021-~5 2021-~6 2022-~7 2022-~8
   <chr>           <dbl>   <dbl>   <dbl>   <dbl>   <dbl>   <dbl>   <dbl>   <dbl>
 1 ANCOL            48.5    61.6    72.1    75.0    76.9    78.9    80.6    80.8
 2 ANGKE            52.8    64.6    74.2    77.7    79.6    80.9    81.7    81.9
 3 BALE KAMBANG     37.0    57.0    70.0    73.9    76.6    78.2    79.5    79.7
 4 BALI MESTER      47.0    62.0    74.2    78.2    80.3    81.7    82.8    83.1
 5 BAMBU APUS       47.6    64.2    76.2    80.9    82.5    83.4    84.5    84.7
 6 BANGKA           51.6    61.3    73.2    78.0    79.8    80.7    81.5    81.7
 7 BARU             57.9    67.6    79.5    82.9    84.2    85.0    85.8    86.0
 8 BATU AMPAR       39.8    58.4    70.6    74.5    77.1    78.8    80.1    80.4
 9 BENDUNGAN HI~    53.6    62.6    75.6    79.1    80.5    81.4    82.3    82.5
10 BIDARA CINA      40.6    57.6    71.0    75.2    77.0    78.2    79.2    79.5
# ... with 251 more rows, 4 more variables: `2022-03-31` <dbl>,
#   `2022-04-30` <dbl>, `2022-05-31` <dbl>, `2022-06-30` <dbl>, and abbreviated
#   variable names 1: `2021-07-31`, 2: `2021-08-31`, 3: `2021-09-30`,
#   4: `2021-10-31`, 5: `2021-11-30`, 6: `2021-12-31`, 7: `2022-01-31`,
#   8: `2022-02-27`
…
